Воскресный СкRинкаст
…
scoobydoo %>%
  count(monster_real)

## # A tibble: 3 x 2
##   monster_real     n
##   <lgl>        <int>
## 1 FALSE          404
## 2 TRUE           112
## 3 NA              87

scoobydoo

## # A tibble: 603 x 75
##    index series_name  network season title   imdb engagement date_aired run_time
##    <dbl> <chr>        <chr>   <chr>  <chr>  <dbl>      <dbl> <date>        <dbl>
##  1     1 Scooby Doo,… CBS     1      What …   8.1        556 1969-09-13       21
##  2     2 Scooby Doo,… CBS     1      A Clu…   8.1        479 1969-09-20       22
##  3     3 Scooby Doo,… CBS     1      Hassl…   8          455 1969-09-27       21
##  4     4 Scooby Doo,… CBS     1      Mine …   7.8        426 1969-10-04       21
##  5     5 Scooby Doo,… CBS     1      Decoy…   7.5        391 1969-10-11       21
##  6     6 Scooby Doo,… CBS     1      What …   8.4        384 1969-10-18       21
##  7     7 Scooby Doo,… CBS     1      Never…   7.6        358 1969-10-25       21
##  8     8 Scooby Doo,… CBS     1      Foul …   8.2        358 1969-11-01       21
##  9     9 Scooby Doo,… CBS     1      The B…   8.1        371 1969-11-08       21
## 10    10 Scooby Doo,… CBS     1      Bedla…   8          346 1969-11-15       21
## # … with 593 more rows, and 66 more variables: format <chr>,
## #   monster_name <chr>, monster_gender <chr>, monster_type <chr>,
## #   monster_subtype <chr>, monster_species <chr>, monster_real <lgl>,
## #   monster_amount <dbl>, caught_fred <lgl>, caught_daphnie <lgl>,
## #   caught_velma <lgl>, caught_shaggy <lgl>, caught_scooby <lgl>,
## #   captured_fred <lgl>, captured_daphnie <lgl>, captured_velma <lgl>,
## #   captured_shaggy <lgl>, captured_scooby <lgl>, unmask_fred <lgl>,
## #   unmask_daphnie <lgl>, unmask_velma <lgl>, unmask_shaggy <lgl>,
## #   unmask_scooby <lgl>, snack_fred <lgl>, snack_daphnie <lgl>,
…
scoobydoo %>%
  count(series_name, season)

## # A tibble: 47 x 3
##    series_name                     season        n
##    <chr>                           <chr>     <int>
##  1 A Pup Named Scooby-Doo          1            13
##  2 A Pup Named Scooby-Doo          2             8
##  3 A Pup Named Scooby-Doo          3             4
##  4 A Pup Named Scooby-Doo          4             5
##  5 Be Cool, Scooby-Doo!            1            26
##  6 Be Cool, Scooby-Doo!            2            27
##  7 Dynomutt, Dogwonder             Crossover     3
##  8 Hanna-Barbera Superstars 10     Special       3
##  9 Harvey Birdman, Attorney at Law Crossover     1
## 10 Johnny Bravo                    Crossover     1
## # … with 37 more rows
…
